COMP/STAT112 Notebook - 9 Joining Data
…
Which of the 2 datasets do you need to answer this question? One? Both?

If you need course information, use courses_combined not courses.

Do you have to do any joining? If so, which dataset will go on the left, i.e. which dataset includes your primary observations of interest? Which join function will you need?

student_class_size <- grades %>% 
  inner_join(courses_combined) %>% 
  group_by(sid) %>% 
  summarize(med_class_size = median(enroll))

student_class_size

# A tibble: 443 × 2
   sid    med_class_size
   <chr>           <dbl>
 1 S31185           23.5
 2 S31188           21  
 3 S31191           25  
 4 S31194           15  
 5 S31197           24  
 6 S31200           21  
 7 S31203           20  
 8 S31206           17  
 9 S31209           20  
10 S31212           21  
# ℹ 433 more rows
…
Part a

How many total student enrollments are there in each department? Order from high to low.

grades %>% 
  full_join(courses) %>% 
  group_by(dept) %>% 
  summarize(student_enroll = sum(enroll))

# A tibble: 40 × 2
   dept  student_enroll
   <chr>          <int>
 1 A                 29
 2 B                342
 3 C               6045
 4 D               7167
 5 E                221
 6 F               8123
 7 G               8301
 8 H               1988
 9 I                455
10 J               2779
# ℹ 30 more rows
…
